{
  "version": 1,
  "serviceConfiguration": {
    "apiName": "amplifyshared",
    "serviceName": "AppSync",
    "gqlSchemaPath": "/Users/kmiyashita/gitlab/chrome-extension-amplify-auth/packages/amplify-shared/amplify/backend/api/amplifyshared/schema.graphql",
    "defaultAuthType": {
      "mode": "API_KEY",
      "expirationTime": 7
    },
    "additionalAuthTypes": [
      {
        "mode": "AMAZON_COGNITO_USER_POOLS",
        "cognitoUserPoolId": "authamplifyshared16c69fc8"
      }
    ]
  }
}